{
  "page": 1,
  "per_page": 3,
  "total_pages": 10,
  "total_orders": 30,
  "orders": [
    {
      "id": 1012,
      "order_number": "1012",
      "date_created": "2025-10-28 14:21:35",
      "status": "processing",
      "total": "129.00",
      "currency": "USD",
      "payment_method": {
        "id": "bacs",
        "title": "Direct Bank Transfer"
      },
      "billing": {
        "first_name": "Alice",
        "last_name": "Johnson",
        "company": "AJ Studio",
        "email": "alice.johnson@example.com",
        "phone": "+14150001111",
        "address_1": "451 Sunset Blvd",
        "address_2": "Apt 4C",
        "city": "Los Angeles",
        "state": "CA",
        "postcode": "90028",
        "country": "US"
      },
      "shipping": {
        "first_name": "Alice",
        "last_name": "Johnson",
        "company": "AJ Studio",
        "address_1": "451 Sunset Blvd",
        "address_2": "Apt 4C",
        "city": "Los Angeles",
        "state": "CA",
        "postcode": "90028",
        "country": "US"
      },
      "items": [
        {
          "product_id": 223,
          "name": "Photo Frame - Walnut",
          "quantity": 2,
          "subtotal": "80.00",
          "total": "80.00"
        },
        {
          "product_id": 118,
          "name": "Canvas Print 12x18",
          "quantity": 1,
          "subtotal": "49.00",
          "total": "49.00"
        }
      ]
    },
    {
      "id": 1013,
      "order_number": "1013",
      "date_created": "2025-10-28 15:45:12",
      "status": "completed",
      "total": "74.50",
      "currency": "USD",
      "payment_method": {
        "id": "cod",
        "title": "Cash on Delivery"
      },
      "billing": {
        "first_name": "Brian",
        "last_name": "Nguyen",
        "company": "",
        "email": "brian.nguyen@example.com",
        "phone": "+14159992222",
        "address_1": "88 Market St",
        "address_2": "",
        "city": "San Francisco",
        "state": "CA",
        "postcode": "94103",
        "country": "US"
      },
      "shipping": {
        "first_name": "Brian",
        "last_name": "Nguyen",
        "company": "",
        "address_1": "88 Market St",
        "address_2": "",
        "city": "San Francisco",
        "state": "CA",
        "postcode": "94103",
        "country": "US"
      },
      "items": [
        {
          "product_id": 205,
          "name": "T-Shirt - Coffee Lover",
          "quantity": 1,
          "subtotal": "25.00",
          "total": "25.00"
        },
        {
          "product_id": 319,
          "name": "Ceramic Mug",
          "quantity": 2,
          "subtotal": "49.50",
          "total": "49.50"
        }
      ]
    },
    {
      "id": 1014,
      "order_number": "1014",
      "date_created": "2025-10-29 09:12:01",
      "status": "on-hold",
      "total": "210.00",
      "currency": "USD",
      "payment_method": {
        "id": "stripe",
        "title": "Credit Card (Stripe)"
      },
      "billing": {
        "first_name": "Charlotte",
        "last_name": "Kim",
        "company": "C Studio",
        "email": "charlotte.kim@example.com",
        "phone": "+14158883333",
        "address_1": "19 Ocean Ave",
        "address_2": "Suite 7",
        "city": "Santa Monica",
        "state": "CA",
        "postcode": "90401",
        "country": "US"
      },
      "shipping": {
        "first_name": "Charlotte",
        "last_name": "Kim",
        "company": "C Studio",
        "address_1": "19 Ocean Ave",
        "address_2": "Suite 7",
        "city": "Santa Monica",
        "state": "CA",
        "postcode": "90401",
        "country": "US"
      },
      "items": [
        {
          "product_id": 350,
          "name": "Premium Canvas Set (3 pcs)",
          "quantity": 1,
          "subtotal": "210.00",
          "total": "210.00"
        }
      ]
    }
  ]
}
